^C:\USERS\PC USER\CPPPROJECTS\HOMEWORK17\X64\DEBUG\HOMEWORK17.OBJ
C:\USERS\PC USER\CPPPROJECTS\HOMEWORK17\X64\DEBUG\HOMEWORK17.EXE
C:\USERS\PC USER\CPPPROJECTS\HOMEWORK17\X64\DEBUG\HOMEWORK17.ILK
C:\USERS\PC USER\CPPPROJECTS\HOMEWORK17\X64\DEBUG\HOMEWORK17.PDB
